{
    "name": "Gotify",
    "version": "2.5.0.14",
    "slug": "gotify",
    "description": "Gotify Push Notifications",
    "url": "https://gitlab.com/dx-public/dx-hassio-addons/tree/master/gotify",
    "arch": ["armhf", "armv7", "aarch64", "i386", "amd64"],
    "startup": "services",
    "boot": "auto",
    "init": false,
    "map": ["share", "ssl", "addon_config:rw"],
    "host_network": true,
    "options": {
        "flags": [],
        "env_vars": []
    },
    "schema": {
        "flags": ["str"],
        "env_vars": ["str"]
    }
}
